COO=7
DataHora=09062015111623 
VendaBruta=20250
NumSerie=BE10EMULADOR00000000
NumUltItem=1
TotalItem=10000
SubTotal=10050
EmPagamento=0
NumPagtos=2
Pagto1=1|50|7
TotalAPagar=000
TotalPago=10050
Pagto2=2|50,5|7
